<svg width="24" height="24" viewBox="0 0 24 24" fill="none" xmlns="http://www.w3.org/2000/svg">
<path fill-rule="evenodd" clip-rule="evenodd" d="M14.6034 17.6884H22.2644V22.3122H14.6034V17.6884ZM1.73561 17.6884H9.39659V22.3122H1.73561V17.6884ZM8.18828 1.68784H15.8493V6.31158H8.18828V1.68784ZM6.45267 0.806547V7.19113C6.45267 7.67958 6.89417 7.99768 7.47151 7.99768H11.1322V10.8988H5.81098C5.09243 10.8988 4.67953 11.1943 4.67953 11.8896V15.9988H1.01884C0.666716 15.9988 0.479035 16.0701 0.291353 16.2457C0.107247 16.4178 0 16.5794 0 16.9166V23.0822C0 23.7236 0.47546 24 1.09392 24H10.0365C10.3886 24 10.6317 23.9426 10.8212 23.7723C11.0053 23.6072 11.1304 23.4159 11.1304 23.0822V16.9166C11.1304 16.3274 10.6978 15.9988 10.1116 15.9988H6.41513V12.5867H17.5473V15.9988H13.8866C13.3004 15.9988 12.8678 16.3256 12.8678 16.9166V23.0822C12.8678 23.7236 13.3433 24 13.9617 24H22.9043C23.2564 24 23.4995 23.9426 23.689 23.7723C23.8731 23.6072 23.9982 23.4159 23.9982 23.0822V16.9166C23.9982 16.3274 23.5657 15.9988 22.9794 15.9988H19.2812V11.7054C19.2812 11.1682 18.7825 10.8988 18.1872 10.8988H12.8678V7.99942H16.566C17.2703 7.99942 17.5849 7.59615 17.5849 6.93561V1.0273C17.5849 0.354603 17.2202 0 16.5285 0H7.54659C6.95852 0 6.45267 0.264214 6.45267 0.806547Z" fill="#DBAB27"/>
<rect x="7" y="1" width="10" height="6" fill="#DBAB27"/>
</svg>
