<svg width="24" height="24" viewBox="0 0 24 24" fill="none" xmlns="http://www.w3.org/2000/svg">
<g clip-path="url(#clip0)">
<path d="M23.3598 7.9112C23.0005 7.46846 22.563 7.14203 21.9933 6.94317C21.7569 6.86063 20.9266 6.6824 20.6232 6.82873C20.6232 6.25092 20.6232 5.6731 20.6232 5.09529C20.6232 4.45931 20.8 3.39186 19.7482 3.39561L17.2183 3.39748C17.3635 3.09169 17.1866 2.25498 17.1047 2.01673C16.7212 0.898616 15.634 0 14.4538 0C13.3852 0 12.9626 0.221371 12.2422 0.829203C12.1565 0.902368 12.1491 0.941765 12.069 1.02806C11.5236 1.60775 11.155 2.91159 11.3858 3.39748C10.5425 3.39748 9.69919 3.39748 8.85774 3.39748C8.47983 3.39748 7.96602 3.3337 7.66258 3.45001C7.40568 3.54944 7.1376 3.83835 7.1376 4.17791V7.77988C7.1376 8.0838 7.4094 8.37646 7.63093 8.47213C7.95672 8.61283 8.49845 8.41022 8.9713 8.63722C9.15746 8.62034 9.34548 8.60908 9.53537 8.60908C12.8677 8.60908 15.5689 11.3312 15.5689 14.6893C15.5689 14.9444 15.5521 15.1958 15.5205 15.4434C15.5316 15.4866 15.541 15.5335 15.5484 15.5804C15.6117 15.9725 15.4013 16.1676 15.621 16.5597C15.7457 16.7811 16.0082 16.9893 16.3415 16.9893H19.8487C20.1969 16.9893 20.4854 16.7079 20.5804 16.4359C20.6827 16.1432 20.625 15.586 20.625 15.224C20.625 14.3854 20.625 13.5468 20.625 12.7101C20.9285 12.8564 21.7569 12.6763 21.9952 12.5956C22.3992 12.4587 22.9707 12.1004 23.1885 11.8265C23.4156 11.5394 23.4342 11.5826 23.6706 11.1567C24.2105 10.1831 24.0746 8.79669 23.3598 7.9112Z" fill="#C4C4C4"/>
<path d="M8.33819 23.9998C3.73999 23.9998 0 20.2253 0 15.5859C0 10.9464 3.73999 7.17188 8.33819 7.17188C12.9364 7.17188 16.6745 10.9464 16.6745 15.5859C16.6745 20.2253 12.9345 23.9998 8.33819 23.9998ZM8.33819 9.19986C4.84952 9.19986 2.01055 12.0645 2.01055 15.5877C2.01055 19.1109 4.84952 21.9756 8.33819 21.9756C11.8269 21.9756 14.6658 19.1109 14.6658 15.5877C14.6658 12.0645 11.825 9.19986 8.33819 9.19986Z" fill="#DBAB27"/>
<path d="M7.76094 18.5857C7.10565 18.5557 6.47456 18.4075 5.86581 18.143V16.6403C6.21394 16.8185 6.58998 16.9667 6.99768 17.0868C7.40537 17.205 7.7628 17.265 8.06997 17.265C8.32501 17.265 8.51118 17.235 8.62846 17.1731C8.74574 17.1112 8.80531 17.008 8.80531 16.8635C8.80531 16.7641 8.76249 16.6797 8.67686 16.6103C8.59123 16.5409 8.44974 16.4621 8.25055 16.3758C8.05136 16.2876 7.78328 16.1825 7.44447 16.0587C7.0647 15.918 6.75753 15.7586 6.52483 15.5822C6.29213 15.4059 6.12086 15.2089 6.01474 14.9894C5.90863 14.7699 5.85464 14.4979 5.85464 14.1733C5.85464 13.6762 6.01288 13.286 6.33122 13.0064C6.64769 12.725 7.12427 12.5524 7.75908 12.4868V11.8677H8.68803V12.4793C9.28375 12.513 9.88319 12.6594 10.4882 12.922L9.95393 14.2108C9.32843 13.9276 8.76436 13.785 8.26172 13.785C8.02157 13.785 7.85402 13.815 7.75722 13.8731C7.66042 13.9313 7.61201 14.0195 7.61201 14.1339C7.61201 14.2333 7.64738 14.3159 7.71813 14.3797C7.78887 14.4435 7.90987 14.5166 8.08487 14.5973C8.25986 14.678 8.50001 14.7699 8.80717 14.8749C9.43268 15.0982 9.88133 15.3515 10.155 15.6366C10.4286 15.9218 10.5645 16.2895 10.5645 16.7378C10.5645 17.2444 10.4044 17.6571 10.0861 17.9723C9.76777 18.2893 9.30236 18.4844 8.69175 18.5595V19.4337H7.76281V18.5857H7.76094Z" fill="#DBAB27"/>
</g>
<defs>
<clipPath id="clip0">
<rect width="24" height="24" fill="white"/>
</clipPath>
</defs>
</svg>
