<svg width="24" height="24" viewBox="0 0 24 24" fill="none" xmlns="http://www.w3.org/2000/svg">
<g clip-path="url(#clip0)">
<path d="M12.0178 8.03418C11.6597 8.03418 11.2982 8.08442 10.9384 8.18491C9.52999 8.58199 8.48137 9.6841 8.13453 11.1314C8.08591 11.334 8.02594 11.7749 8.02594 12.0001C8.02594 12.2416 8.08753 12.6809 8.14263 12.898C8.43437 14.0747 9.21071 15.0488 10.2755 15.5674C11.3274 16.0812 12.5559 16.0941 13.6434 15.6079C14.0584 15.4215 14.4457 15.1492 14.7974 14.7975C15.1621 14.4329 15.4376 14.0374 15.6175 13.6209C16.2869 12.0715 15.9725 10.3794 14.7974 9.20436C14.034 8.44099 13.0438 8.03418 12.0178 8.03418Z" fill="#C4C4C4"/>
<path d="M23.4554 9.76013C23.094 9.40195 22.6078 9.20421 22.0697 9.20421C22.0665 9.20421 22.0616 9.20421 22.0583 9.20421C21.3809 9.20746 20.8363 9.2107 20.6677 9.16532C20.6483 9.12156 20.6191 9.04052 20.5948 8.97245C20.5348 8.80713 20.4538 8.58185 20.3144 8.29822C20.1831 8.03241 20.1442 7.9222 20.1378 7.87682C20.1783 7.80551 20.3533 7.62885 20.4311 7.55105C20.4992 7.4846 20.5705 7.41653 20.6451 7.34684C21.0859 6.93517 21.6888 6.37115 21.6888 5.4765C21.6888 4.63209 21.0778 4.05835 20.6742 3.67909C20.611 3.61912 20.5494 3.56078 20.4927 3.50567C20.4295 3.44246 20.3663 3.37439 20.3015 3.30632C19.906 2.88493 19.3647 2.30956 18.4797 2.30956C17.6175 2.30956 17.0227 2.95624 16.5883 3.4295C16.4571 3.57212 16.2642 3.7812 16.1702 3.83793C16.0065 3.83793 15.9984 3.83306 15.872 3.76985C15.8104 3.73906 15.7342 3.70016 15.6353 3.65478C15.4019 3.54457 15.2139 3.47812 15.0616 3.42301C14.9806 3.39384 14.8833 3.35981 14.8395 3.33712C14.8201 3.27877 14.7942 3.11831 14.7958 2.67261C14.7958 2.54943 14.7974 2.43598 14.8006 2.32901C14.812 1.81199 14.8217 1.36629 14.5089 0.867099C14.248 0.448947 13.6499 0 12.9498 0H11.0502C10.3809 0 9.79903 0.41329 9.51864 0.823339C9.14587 1.36953 9.17828 2.01945 9.20421 2.53971C9.23501 3.16694 9.20746 3.32253 9.04862 3.39384L7.89951 3.8363C7.86872 3.8363 7.83793 3.83468 7.81524 3.83306C7.78768 3.80713 7.74554 3.76337 7.70665 3.72447C7.67261 3.69044 7.63533 3.65154 7.59319 3.6094C7.50729 3.5235 7.42626 3.4376 7.34522 3.35332C6.87844 2.86386 6.35008 2.30956 5.47812 2.30956C4.63371 2.30956 4.05997 2.92058 3.68071 3.32415C3.62075 3.38898 3.5624 3.44895 3.50729 3.50567C3.44408 3.56888 3.37601 3.63209 3.30794 3.69692C2.88655 4.09238 2.31118 4.63371 2.31118 5.51864C2.31118 6.35008 2.8752 6.88817 3.37277 7.36143C3.45219 7.4376 3.53323 7.51378 3.61102 7.59157C3.81361 7.79254 3.84441 7.86062 3.84927 7.87034C3.85089 7.94489 3.72285 8.21718 3.65478 8.36305C3.54619 8.59319 3.48298 8.78282 3.43274 8.93355C3.40681 9.01134 3.37439 9.10697 3.35332 9.14911C3.30632 9.16694 3.15235 9.20421 2.67423 9.20421C2.67423 9.20421 2.67423 9.20421 2.67261 9.20421C2.54943 9.20421 2.43598 9.20097 2.33063 9.19935C1.81361 9.18801 1.36791 9.17828 0.86872 9.49109C0.448947 9.75203 0 10.3501 0 11.0502V12.9498C0 13.6191 0.41329 14.201 0.823339 14.4814C1.31605 14.8185 1.7812 14.8088 2.32091 14.799C2.41815 14.7974 2.52026 14.7958 2.63047 14.7958H2.76175C3.31767 14.7942 3.33063 14.7974 3.39546 14.9498L3.83793 16.1005C3.83793 16.1313 3.8363 16.1621 3.83468 16.1848C3.80875 16.2123 3.76499 16.2545 3.72609 16.2934C3.69206 16.3274 3.65316 16.3647 3.61102 16.4068L3.0778 16.94C2.73582 17.2788 2.31118 17.7002 2.31118 18.5219C2.31118 19.3663 2.9222 19.94 3.32577 20.3193C3.3906 20.3793 3.45057 20.4376 3.50729 20.4927C3.5705 20.5559 3.63371 20.624 3.69854 20.6921C4.094 21.1135 4.63533 21.6888 5.52026 21.6888C6.3987 21.6888 6.95462 21.0746 7.35818 20.6272C7.54781 20.4182 7.80713 20.1297 7.91734 20.1491C7.9919 20.1621 8.13128 20.2269 8.26418 20.2917C8.42788 20.3695 8.61264 20.4587 8.83468 20.5332C9.16694 20.6451 9.16694 20.6451 9.19125 20.7812C9.23987 21.0567 9.2269 21.3258 9.21232 21.611C9.18476 22.188 9.15397 22.8412 9.71799 23.4052C9.99676 23.6823 10.4003 24.0016 11.0486 24.0016H12.9498C13.4263 24.0016 13.8963 23.8039 14.2399 23.457C14.6013 23.094 14.799 22.6013 14.7958 22.0713C14.7942 21.9076 14.7942 21.7601 14.7925 21.6256C14.7877 21.2058 14.7844 20.8071 14.8185 20.6872C14.8736 20.6532 15.0162 20.5964 15.1442 20.5462C15.2869 20.4895 15.4668 20.4198 15.6807 20.3225C15.7423 20.295 15.7958 20.2674 15.8493 20.2399C15.9384 20.1929 15.987 20.1686 16.0665 20.1523C16.1896 20.128 16.4133 20.376 16.6288 20.6159C17.034 21.0697 17.5883 21.6904 18.5219 21.6904C19.3663 21.6904 19.94 21.0794 20.3193 20.6758C20.3793 20.6126 20.4376 20.5511 20.4927 20.4943C20.5559 20.4311 20.624 20.3679 20.6921 20.3031C21.1135 19.9076 21.6888 19.3663 21.6888 18.4814C21.6888 17.6272 21.0875 17.0648 20.6467 16.6564C20.577 16.5916 20.5105 16.53 20.4506 16.47C20.376 16.3955 20.1831 16.2026 20.1394 16.1248C20.154 16.0405 20.2593 15.8185 20.3047 15.7196C20.4246 15.4603 20.5041 15.2561 20.5656 15.0924C20.6029 14.9951 20.6467 14.8784 20.6758 14.8266C20.812 14.7893 21.2464 14.7925 21.7423 14.7974L22.0259 14.799C22.5835 14.8039 23.094 14.6029 23.4619 14.2382C23.8071 13.8947 23.9984 13.4376 23.9984 12.953V11.0502C24 10.5737 23.8006 10.1037 23.4554 9.76013ZM17.2139 14.3306C16.7164 15.53 15.53 16.7164 14.3306 17.2139C13.5008 17.5575 12.7391 17.7261 12 17.7261C9.79579 17.7261 7.60292 16.2982 6.78606 14.3306C6.64344 13.987 6.52998 13.7164 6.42788 13.2528C6.35656 12.9335 6.27391 12.4149 6.27391 12C6.27391 10.5105 6.88979 9.04052 7.96596 7.96596C8.47326 7.45867 8.9919 7.09562 9.64668 6.79092C11.0065 6.15721 12.6207 6.11831 14.0762 6.68233C15.5154 7.24149 16.6596 8.33063 17.2156 9.66937C17.893 11.3031 17.893 12.6969 17.2139 14.3306Z" fill="#C4C4C4"/>
</g>
<defs>
<clipPath id="clip0">
<rect width="24" height="24" fill="white"/>
</clipPath>
</defs>
</svg>
